^D:\РЕПОЗИТОРИИ\PROJECTS\BITFIELD\SLN\VC10\GTEST\DEBUG\GTEST-ALL.OBJ
/OUT:"D:\РЕПОЗИТОРИИ\PROJECTS\BITFIELD\SLN\VC10\DEBUG\GTEST.LIB" /NOLOGO "DEBUG\GTEST-ALL.OBJ"
^D:\REPOSITORIES\MP2-LAB1-SET\SRC\ANDREW BAKALIN\SLN\VC10\GTEST\DEBUG\GTEST-ALL.OBJ
/OUT:"D:\REPOSITORIES\MP2-LAB1-SET\SRC\ANDREW BAKALIN\SLN\VC10\DEBUG\GTEST.LIB" /NOLOGO "DEBUG\GTEST-ALL.OBJ"
